\relax 
\catcode `:\active 
\catcode `;\active 
\catcode `!\active 
\catcode `?\active 
\babel@aux{french}{}
\@writefile{toc}{\contentsline {chapter}{\numberline {1}Premiers pas en python}{3}}
\@writefile{lof}{\addvspace {10\p@ }}
\@writefile{lot}{\addvspace {10\p@ }}
\@writefile{toc}{\contentsline {section}{\numberline {1.1}D\IeC {\'e}couverte de l'interpr\IeC {\'e}teur python}{3}}
\@writefile{toc}{\contentsline {section}{\numberline {1.2}Un peu plus qu'une calculatrice}{4}}
\@writefile{toc}{\contentsline {section}{\numberline {1.3}Le premier programme python}{6}}
\@writefile{toc}{\contentsline {section}{\numberline {1.4}Un peu d'interaction avec votre programme}{8}}
